Type,Make,Model,Mileage,Price,Doors,Drive_type,pass_cap,
Car,Ford,Torus,40000,10,4,None,None,
Truck,Dodge,Ram,400,20000,None,4x4,None,4
SUV,Ford,Escape,50000,45000,None,None,5,
Car,Ford,test1,40000,10,4,None,None,
Car,Ford,test2,1234,10,4,None,None,
